..............
----------------------------------------------------------------------
Ran 14 tests in 0.005s

OK
Name               Stmts   Miss Branch BrPart  Cover   Missing
--------------------------------------------------------------
Diplomacy.py          76      0     44      0   100%
TestDiplomacy.py      62      0      0      0   100%
--------------------------------------------------------------
TOTAL                138      0     44      0   100%
