....
----------------------------------------------------------------------
Ran 4 tests in 0.001s

OK
Name               Stmts   Miss Branch BrPart  Cover   Missing
--------------------------------------------------------------
Diplomacy.py          48      3     34      2    94%   20-21, 46, 19->20, 45->46
TestDiplomacy.py      17      0      2      1    95%   23->exit
--------------------------------------------------------------
TOTAL                 65      3     36      3    94%
