........
----------------------------------------------------------------------
Ran 8 tests in 0.001s

OK
Name               Stmts   Miss Branch BrPart  Cover   Missing
--------------------------------------------------------------
Diplomacy.py          74      1     54      4    96%   153, 19->17, 28->17, 131->116, 149->153
TestDiplomacy.py      46      0      2      1    98%   99->exit
--------------------------------------------------------------
TOTAL                120      1     56      5    97%
