A Nagoya
B Xian
C [dead]
D [dead]
E [dead]
F [dead]
G Santiago
H [dead]
I [dead]
J [dead]
K [dead]
L [dead]
M [dead]
N [dead]
O [dead]
P [dead]
Q [dead]
R [dead]
S [dead]
T [dead]
U [dead]
V [dead]
W [dead]
X [dead]
Y [dead]
Z Surat
